Projetos/Desenhos/contsic/simulation/qsim/Contsic.msim.vcd
$comment
	File created using the following command:
		vcd file Contsic.msim.vcd -direction
$end
$date
	Fri Nov 19 16:00:23 2021
$end
$version
	ModelSim Version 2020.1
$end
$timescale
	1ps
$end

$scope module Contsic_vlg_vec_tst $end
$var reg 1 ! Clock $end
$var reg 1 " Reset $end
$var wire 1 # Q [3] $end
$var wire 1 $ Q [2] $end
$var wire 1 % Q [1] $end
$var wire 1 & Q [0] $end

$scope module i1 $end
$var wire 1 ' gnd $end
$var wire 1 ( vcc $end
$var wire 1 ) unknown $end
$var tri1 1 * devclrn $end
$var tri1 1 + devpor $end
$var tri1 1 , devoe $end
$var wire 1 - Q[3]~output_o $end
$var wire 1 . Q[2]~output_o $end
$var wire 1 / Q[1]~output_o $end
$var wire 1 0 Q[0]~output_o $end
$var wire 1 1 Clock~input_o $end
$var wire 1 2 Clock~inputclkctrl_outclk $end
$var wire 1 3 inst20~combout $end
$var wire 1 4 Reset~input_o $end
$var wire 1 5 Reset~inputclkctrl_outclk $end
$var wire 1 6 inst1~q $end
$var wire 1 7 inst17~0_combout $end
$var wire 1 8 inst2~q $end
$var wire 1 9 inst3~0_combout $end
$var wire 1 : inst3~q $end
$var wire 1 ; inst21~combout $end
$var wire 1 < inst~q $end
$upscope $end
$upscope $end
$enddefinitions $end
#0
$dumpvars
0!
1"
0&
0%
0$
0#
0'
1(
x)
1*
1+
1,
0-
0.
0/
00
01
02
03
14
15
06
17
08
09
0:
0;
0<
$end
#10000
1!
11
12
18
10
1&
07
13
#20000
0!
01
02
#30000
1!
11
12
08
16
1/
00
0&
1%
17
#40000
0!
01
02
#50000
1!
11
12
18
10
1&
19
07
03
#60000
0!
01
02
#70000
1!
11
12
1:
08
06
0/
00
1.
1$
0&
0%
17
#80000
0!
01
02
#90000
1!
11
12
18
10
1&
07
13
#100000
0!
01
02
#110000
1!
11
12
08
16
1/
00
0&
1%
17
#120000
0!
01
02
#130000
1!
11
12
18
10
1&
1;
09
07
03
#140000
0!
01
02
#150000
1!
11
12
1<
0:
08
06
0/
00
0.
1-
1#
0$
0&
0%
17
#160000
0!
01
02
#170000
1!
11
12
18
10
1&
07
13
#180000
0!
01
02
#190000
1!
11
12
08
16
1/
00
0&
1%
0;
03
#200000
0!
01
02
#210000
1!
11
12
0<
06
0/
0-
0#
0%
17
#220000
0!
01
02
#230000
1!
11
12
18
10
1&
07
13
#240000
0!
01
02
#250000
1!
11
12
08
16
1/
00
0&
1%
17
#260000
0!
01
02
#270000
1!
11
12
18
10
1&
19
07
03
#280000
0!
01
02
#290000
1!
11
12
1:
08
06
0/
00
1.
1$
0&
0%
17
#300000
0!
01
02
#310000
1!
11
12
18
10
1&
07
13
#320000
0!
01
02
#330000
1!
11
12
08
16
1/
00
0&
1%
17
#340000
0!
01
02
#350000
1!
11
12
18
10
1&
1;
09
07
03
#360000
0!
01
02
#370000
1!
11
12
1<
0:
08
06
0/
00
0.
1-
1#
0$
0&
0%
17
#380000
0!
01
02
#390000
1!
11
12
18
10
1&
07
13
#400000
0!
01
02
#410000
1!
11
12
08
16
1/
00
0&
1%
0;
03
#420000
0!
01
02
#430000
1!
11
12
0<
06
0/
0-
0#
0%
17
#440000
0!
01
02
#450000
1!
11
12
18
10
1&
07
13
#460000
0!
01
02
#470000
1!
11
12
08
16
1/
00
0&
1%
17
#480000
0!
01
02
#490000
1!
11
12
18
10
1&
19
07
03
#500000
0!
01
02
#510000
1!
11
12
1:
08
06
0/
00
1.
1$
0&
0%
17
#520000
0!
01
02
#530000
1!
11
12
18
10
1&
07
13
#540000
0!
01
02
#550000
1!
11
12
08
16
1/
00
0&
1%
17
#560000
0!
01
02
#570000
1!
11
12
18
10
1&
1;
09
07
03
#580000
0!
01
02
#590000
1!
11
12
1<
0:
08
06
0/
00
0.
1-
1#
0$
0&
0%
17
#600000
0!
01
02
#610000
1!
11
12
18
10
1&
07
13
#620000
0!
01
02
#630000
1!
11
12
08
16
1/
00
0&
1%
0;
03
#640000
0!
01
02
#650000
1!
11
12
0<
06
0/
0-
0#
0%
17
#660000
0!
01
02
#670000
1!
11
12
18
10
1&
07
13
#680000
0!
01
02
#690000
1!
11
12
08
16
1/
00
0&
1%
17
#700000
0!
01
02
#710000
1!
11
12
18
10
1&
19
07
03
#720000
0!
01
02
#730000
1!
11
12
1:
08
06
0/
00
1.
1$
0&
0%
17
#740000
0!
01
02
#750000
1!
11
12
18
10
1&
07
13
#760000
0!
01
02
#770000
1!
11
12
08
16
1/
00
0&
1%
17
#780000
0!
01
02
#790000
1!
11
12
18
10
1&
1;
09
07
03
#800000
0!
01
02
#810000
1!
11
12
1<
0:
08
06
0/
00
0.
1-
1#
0$
0&
0%
17
#820000
0!
01
02
#830000
1!
11
12
18
10
1&
07
13
#840000
0!
01
02
#850000
1!
11
12
08
16
1/
00
0&
1%
0;
03
#860000
0!
01
02
#870000
1!
11
12
0<
06
0/
0-
0#
0%
17
#880000
0!
01
02
#890000
1!
11
12
18
10
1&
07
13
#900000
0!
01
02
#910000
1!
11
12
08
16
1/
00
0&
1%
17
#920000
0!
01
02
#930000
1!
11
12
18
10
1&
19
07
03
#940000
0!
01
02
#950000
1!
11
12
1:
08
06
0/
00
1.
1$
0&
0%
17
#960000
0!
01
02
#970000
1!
11
12
18
10
1&
07
13
#980000
0!
01
02
#990000
1!
11
12
08
16
1/
00
0&
1%
17
