Projetos/Desenhos/simulation/qsim/Cont.msim.vcd
$comment
	File created using the following command:
		vcd file Cont.msim.vcd -direction
$end
$date
	Fri Nov 26 16:30:35 2021
$end
$version
	ModelSim Version 2020.1
$end
$timescale
	1ps
$end

$scope module contador_vlg_vec_tst $end
$var reg 1 ! Clock $end
$var reg 1 " Reset $end
$var wire 1 # D [6] $end
$var wire 1 $ D [5] $end
$var wire 1 % D [4] $end
$var wire 1 & D [3] $end
$var wire 1 ' D [2] $end
$var wire 1 ( D [1] $end
$var wire 1 ) D [0] $end
$var wire 1 * Q [6] $end
$var wire 1 + Q [5] $end
$var wire 1 , Q [4] $end
$var wire 1 - Q [3] $end
$var wire 1 . Q [2] $end
$var wire 1 / Q [1] $end
$var wire 1 0 Q [0] $end
$var wire 1 1 S [3] $end
$var wire 1 2 S [2] $end
$var wire 1 3 S [1] $end
$var wire 1 4 S [0] $end
$var wire 1 5 U [6] $end
$var wire 1 6 U [5] $end
$var wire 1 7 U [4] $end
$var wire 1 8 U [3] $end
$var wire 1 9 U [2] $end
$var wire 1 : U [1] $end
$var wire 1 ; U [0] $end

$scope module i1 $end
$var wire 1 < gnd $end
$var wire 1 = vcc $end
$var wire 1 > unknown $end
$var tri1 1 ? devclrn $end
$var tri1 1 @ devpor $end
$var tri1 1 A devoe $end
$var wire 1 B D[6]~output_o $end
$var wire 1 C D[5]~output_o $end
$var wire 1 D D[4]~output_o $end
$var wire 1 E D[3]~output_o $end
$var wire 1 F D[2]~output_o $end
$var wire 1 G D[1]~output_o $end
$var wire 1 H D[0]~output_o $end
$var wire 1 I Q[6]~output_o $end
$var wire 1 J Q[5]~output_o $end
$var wire 1 K Q[4]~output_o $end
$var wire 1 L Q[3]~output_o $end
$var wire 1 M Q[2]~output_o $end
$var wire 1 N Q[1]~output_o $end
$var wire 1 O Q[0]~output_o $end
$var wire 1 P S[3]~output_o $end
$var wire 1 Q S[2]~output_o $end
$var wire 1 R S[1]~output_o $end
$var wire 1 S S[0]~output_o $end
$var wire 1 T U[6]~output_o $end
$var wire 1 U U[5]~output_o $end
$var wire 1 V U[4]~output_o $end
$var wire 1 W U[3]~output_o $end
$var wire 1 X U[2]~output_o $end
$var wire 1 Y U[1]~output_o $end
$var wire 1 Z U[0]~output_o $end
$var wire 1 [ Clock~input_o $end
$var wire 1 \ inst~0_combout $end
$var wire 1 ] inst~feeder_combout $end
$var wire 1 ^ inst28~1_combout $end
$var wire 1 _ inst15~0_combout $end
$var wire 1 ` inst15~feeder_combout $end
$var wire 1 a inst15~q $end
$var wire 1 b inst5~0_combout $end
$var wire 1 c inst5~q $end
$var wire 1 d inst28~0_combout $end
$var wire 1 e Reset~input_o $end
$var wire 1 f inst12~combout $end
$var wire 1 g inst~q $end
$var wire 1 h inst1~0_combout $end
$var wire 1 i inst1~feeder_combout $end
$var wire 1 j inst1~q $end
$var wire 1 k inst2~0_combout $end
$var wire 1 l inst2~feeder_combout $end
$var wire 1 m inst2~q $end
$var wire 1 n inst3~0_combout $end
$var wire 1 o inst3~q $end
$var wire 1 p inst4~0_combout $end
$var wire 1 q inst4~q $end
$var wire 1 r inst13|inst23|81~0_combout $end
$var wire 1 s inst13|inst23|43~0_combout $end
$var wire 1 t inst13|inst23|41~0_combout $end
$var wire 1 u inst13|inst13|81~0_combout $end
$var wire 1 v inst13|inst23|45~0_combout $end
$var wire 1 w inst13|inst13|81~1_combout $end
$var wire 1 x inst13|inst13|82~0_combout $end
$var wire 1 y inst13|inst23|82~0_combout $end
$var wire 1 z inst24|87~combout $end
$var wire 1 { inst24|86~0_combout $end
$var wire 1 | inst24|85~combout $end
$var wire 1 } inst24|84~0_combout $end
$var wire 1 ~ inst24|6~7_combout $end
$var wire 1 !! inst24|6~8_combout $end
$var wire 1 "! inst24|82~0_combout $end
$var wire 1 #! inst24|81~combout $end
$var wire 1 $! inst13|inst13|45~1_combout $end
$var wire 1 %! inst13|inst13|45~0_combout $end
$var wire 1 &! inst13|inst13|45~2_combout $end
$var wire 1 '! inst13|inst13|43~1_combout $end
$var wire 1 (! inst13|inst13|43~0_combout $end
$var wire 1 )! inst13|inst13|43~2_combout $end
$var wire 1 *! inst13|inst13|41~0_combout $end
$var wire 1 +! inst13|inst13|41~1_combout $end
$var wire 1 ,! inst23|87~combout $end
$var wire 1 -! inst23|86~0_combout $end
$var wire 1 .! inst23|85~combout $end
$var wire 1 /! inst23|84~0_combout $end
$var wire 1 0! inst23|83~combout $end
$var wire 1 1! inst23|82~0_combout $end
$var wire 1 2! inst23|81~0_combout $end
$upscope $end
$upscope $end
$enddefinitions $end
#0
$dumpvars
1!
1"
0)
0(
0'
0&
0%
0$
1#
00
0/
0.
0-
0,
0+
0*
04
03
02
01
0;
0:
09
08
07
06
15
0<
1=
x>
1?
1@
1A
1B
0C
0D
0E
0F
0G
0H
0I
0J
0K
0L
0M
0N
0O
0P
0Q
0R
0S
1T
0U
0V
0W
0X
0Y
0Z
1[
1\
1]
0^
1_
1`
0a
1b
0c
0d
1e
0f
0g
1h
1i
0j
1k
1l
0m
1n
0o
1p
0q
1r
0s
0t
1u
1v
1w
0x
1y
1z
0{
0|
0}
0~
0!!
0"!
0#!
0$!
0%!
0&!
1'!
1(!
1)!
1*!
1+!
1,!
0-!
0.!
0/!
00!
01!
02!
$end
#1000
0!
0[
1g
1O
1S
1^
0\
14
10
12!
1/!
1.!
1-!
1U
1V
1W
1Z
1;
18
17
16
0]
#3500
1!
1[
#6000
0!
0[
0g
0O
0S
0^
1\
04
00
02!
0/!
0.!
0-!
0U
0V
0W
0Z
0;
08
07
06
1]
1j
1N
0*!
0'!
1$!
0h
1/
0+!
0i
1R
13
10!
1-!
0,!
0T
1U
1X
19
16
05
#8500
1!
1[
#11000
0!
0[
1g
1O
1S
0\
14
10
00!
1.!
1V
0X
09
17
0]
#13500
1!
1[
#16000
0!
0[
0g
0O
0S
1\
04
00
10!
0.!
0V
1X
19
07
1]
0j
0N
1*!
1'!
0$!
1h
0/
1+!
1i
0R
03
00!
0-!
1,!
1T
0U
0X
09
06
15
1m
1M
0)!
1$!
1~
0k
1.
1Q
12
12!
1/!
1.!
0,!
0l
0T
1V
1W
1Z
1;
18
17
05
#18500
1!
1[
#21000
0!
0[
1g
1O
1S
0\
14
10
02!
11!
0/!
0W
1Y
0Z
0;
1:
08
0]
#23500
1!
1[
#26000
0!
0[
0g
0O
0S
1\
04
00
12!
01!
1/!
1W
0Y
1Z
1;
0:
18
1]
1j
1N
0*!
0'!
1%!
0$!
0h
1/
0+!
0i
1R
13
11!
0/!
0.!
0V
0W
1Y
1:
08
07
#28500
1!
1[
#31000
0!
0[
1g
1O
1S
0\
14
10
02!
01!
1/!
1.!
1-!
1,!
1T
1U
1V
1W
0Y
0Z
0;
0:
18
17
16
15
0]
#33500
1!
1[
#36000
0!
0[
0g
0O
0S
1\
04
00
12!
11!
0/!
0.!
0-!
0,!
0T
0U
0V
0W
1Y
1Z
1;
1:
08
07
06
05
1]
0j
0N
1*!
1'!
0%!
1$!
1h
0/
1+!
1i
0R
03
01!
1/!
1.!
1V
1W
0Y
0:
18
17
0m
0M
1)!
0$!
0~
1k
0.
0Q
02
02!
0/!
0.!
1,!
1l
1T
0V
0W
0Z
0;
08
07
15
1o
1L
1~
1t
0n
1-
0(!
0'!
1&!
1P
11
0,!
0T
05
#38500
1!
1[
#41000
0!
0[
1g
1O
1S
1^
0\
14
10
1/!
1.!
1V
1W
18
17
0]
#43500
1!
1[
#46000
0!
0[
0g
0O
0S
0^
1\
04
00
0/!
0.!
0V
0W
08
07
1]
1j
1N
1(!
1'!
1$!
0u
0h
1/
0w
0&!
0i
0P
01
1#!
1}
1|
1{
1,!
1T
1C
1D
1E
1H
1)
1&
1%
1$
15
#48500
1!
1[
#51000
0!
0[
1g
1O
1S
0\
14
10
12!
1/!
1.!
1-!
1U
1V
1W
1Z
1;
18
17
16
0]
#53500
1!
1[
#56000
0!
0[
0g
0O
0S
1\
04
00
02!
0/!
0.!
0-!
0U
0V
0W
0Z
0;
08
07
06
1]
0j
0N
0(!
0'!
0$!
1u
1h
0/
1w
1&!
1i
1P
11
0#!
0}
0|
0{
0,!
0T
0C
0D
0E
0H
0)
0&
0%
0$
05
1m
1M
0+!
1$!
0u
0k
1.
1R
0w
13
12!
11!
10!
1-!
0&!
0l
0P
1U
1X
1Y
1Z
1;
1:
19
16
01
1#!
1}
1|
1{
02!
01!
0Y
0Z
1C
1D
1E
1H
1)
1&
1%
1$
0;
0:
#58500
1!
1[
#61000
0!
0[
1g
1O
1S
0\
14
10
00!
1.!
1V
0X
09
17
0]
#63500
1!
1[
#66000
0!
0[
0g
0O
0S
1\
04
00
10!
0.!
0V
1X
19
07
1]
1j
1N
1(!
1'!
1%!
0$!
0~
0h
1/
0)!
1+!
0i
0R
1Q
12
03
12!
00!
1/!
1.!
0-!
0U
1V
1W
0X
1Z
1;
09
18
17
06
#68500
1!
1[
#71000
0!
0[
1g
1O
1S
0\
14
10
02!
11!
0/!
0W
1Y
0Z
0;
1:
08
0]
#73500
1!
1[
#76000
0!
0[
0g
0O
0S
1\
04
00
12!
01!
1/!
1W
0Y
1Z
1;
0:
18
1]
0j
0N
0(!
0'!
0%!
1$!
1~
1h
0/
1)!
0+!
1i
1R
0Q
02
13
02!
10!
0/!
0.!
1-!
1U
0V
0W
1X
0Z
0;
19
08
07
16
0m
0M
1+!
0$!
1u
1k
0.
0R
1w
03
00!
0-!
1,!
1&!
1l
1P
1T
0U
0X
09
06
15
11
0#!
0}
0|
0{
0,!
0T
0C
0D
0E
0H
0)
0&
0%
0$
05
0o
0L
0~
0t
1n
0-
1(!
1'!
0&!
0P
01
1,!
1T
15
1q
1K
1s
0p
1,
0+!
0)!
1%!
0u
1Q
1R
0w
13
12
12!
11!
0,!
0T
1Y
1Z
1;
1:
05
1#!
1}
1|
1{
1C
1D
1E
1H
1)
1&
1%
1$
#78500
1!
1[
#81000
0!
0[
1g
1O
1S
1^
0\
14
10
02!
01!
1/!
1.!
1-!
1,!
1T
1U
1V
1W
0Y
0Z
0;
0:
18
17
16
15
0]
#83500
1!
1[
#86000
0!
0[
0g
0O
0S
0^
1\
04
00
12!
11!
0/!
0.!
0-!
0,!
0T
0U
0V
0W
1Y
1Z
1;
1:
08
07
06
05
1]
1j
1N
0*!
0'!
1$!
0h
1/
1+!
1)!
1&!
0i
1P
0Q
0R
03
02
11
02!
01!
0Y
0Z
0;
0:
#88500
1!
1[
#91000
0!
0[
1g
1O
1S
0\
14
10
1/!
1.!
1V
1W
18
17
0]
#93500
1!
1[
#96000
0!
0[
0g
0O
0S
1\
04
00
0/!
0.!
0V
0W
08
07
1]
0j
0N
1*!
1'!
0$!
1h
0/
0+!
0)!
0&!
1i
0P
1Q
1R
13
12
01
12!
11!
1Y
1Z
1;
1:
1m
1M
1+!
1)!
0%!
1~
1x
1u
0k
1.
0Q
0R
1w
03
02
02!
01!
1,!
1!!
0#!
0}
0z
0l
0B
0E
0H
1F
1T
0Y
0Z
0;
0:
15
1'
0)
0&
0#
0|
0D
0%
#98500
1!
1[
#101000
0!
0[
1g
1O
1S
0\
14
10
12!
1/!
1.!
1-!
1U
1V
1W
1Z
1;
18
17
16
0]
#103500
1!
1[
#106000
0!
0[
0g
0O
0S
1\
04
00
02!
0/!
0.!
0-!
0U
0V
0W
0Z
0;
08
07
06
1]
1j
1N
0*!
0'!
1$!
0h
1/
0+!
0i
1R
13
10!
1-!
0,!
0T
1U
1X
19
16
05
#108500
1!
1[
#111000
0!
0[
1g
1O
1S
0\
14
10
00!
1.!
1V
0X
09
17
0]
#113500
1!
1[
#116000
0!
0[
0g
0O
0S
1\
04
00
10!
0.!
0V
1X
19
07
1]
0j
0N
1*!
1'!
0$!
1h
0/
1+!
1i
0R
03
00!
0-!
1,!
1T
0U
0X
09
06
15
0m
0M
0+!
0)!
1%!
0~
0x
0u
1k
0.
1Q
1R
0w
13
12
12!
11!
0,!
0!!
0{
1z
1l
1B
0C
0F
0T
1Y
1Z
1;
1:
05
0'
0$
1#
1#!
1}
1|
1{
1C
1D
1E
1H
1)
1&
1%
1$
1o
1L
1~
1t
0n
1-
0(!
0'!
1x
1u
1!!
1F
1+!
1w
1'
0#!
0}
0z
0B
0E
0H
0R
03
0)
0&
0#
01!
1/!
1.!
0|
0D
1V
1W
0Y
0:
18
17
0%
#118500
1!
1[
#121000
0!
0[
1g
1O
1S
1^
0\
14
10
02!
11!
0/!
0W
1Y
0Z
0;
1:
08
0]
#123500
1!
1[
#126000
0!
0[
0g
0O
0S
0^
1\
04
00
12!
01!
1/!
1W
0Y
1Z
1;
0:
18
1]
1j
1N
1(!
1'!
1$!
0h
1/
0+!
0i
1R
13
11!
0/!
0.!
0V
0W
1Y
1:
08
07
#128500
1!
1[
#131000
0!
0[
1g
1O
1S
0\
14
10
02!
01!
1/!
1.!
1-!
1,!
1T
1U
1V
1W
0Y
0Z
0;
0:
18
17
16
15
0]
#133500
1!
1[
#136000
0!
0[
0g
0O
0S
1\
04
00
12!
11!
0/!
0.!
0-!
0,!
0T
0U
0V
0W
1Y
1Z
1;
1:
08
07
06
05
1]
0j
0N
0(!
0'!
0$!
1h
0/
1+!
1i
0R
03
01!
1/!
1.!
1V
1W
0Y
0:
18
17
1m
1M
1)!
0%!
0k
1.
0Q
02
02!
0/!
0.!
1,!
1&!
0l
1P
1T
0V
0W
0Z
0;
08
07
15
11
0,!
0T
05
#138500
1!
1[
#141000
0!
0[
1g
1O
1S
0\
14
10
1/!
1.!
1V
1W
18
17
0]
#143500
1!
1[
#146000
0!
0[
0g
0O
0S
1\
04
00
0/!
0.!
0V
0W
08
07
1]
1j
1N
1(!
1'!
1$!
0~
0u
0h
1/
0w
0&!
0!!
0i
0F
0P
01
0'
1|
1,!
1T
1D
1%
15
#148500
1!
1[
#151000
0!
0[
1g
1O
1S
0\
14
10
12!
1/!
1.!
1-!
1U
1V
1W
1Z
1;
18
17
16
0]
#153500
1!
1[
#156000
0!
0[
0g
0O
0S
1\
04
00
02!
0/!
0.!
0-!
0U
0V
0W
0Z
0;
08
07
06
1]
0j
0N
0(!
0'!
0$!
1~
1u
1h
0/
1w
1&!
1!!
1i
1F
1P
11
1'
0|
0,!
0T
0D
0%
05
0m
0M
0)!
1%!
1k
0.
1Q
12
12!
10!
1/!
1.!
0&!
1l
0P
1V
1W
1X
1Z
1;
19
18
17
01
00!
0X
09
0o
0L
0~
0t
1n
0-
1(!
1'!
0x
0u
0!!
0F
0+!
0w
0'
0{
1z
1B
0C
1R
13
0$
1#
11!
0/!
0.!
1#!
1}
1|
1{
1C
1D
1E
1H
0V
0W
1Y
1:
08
07
1)
1&
1%
1$
0q
0K
0s
1p
0,
1+!
1)!
0%!
1u
0Q
0R
1w
03
02
02!
01!
1,!
1T
0Y
0Z
0;
0:
15
0#!
0}
0|
0{
0C
0D
0E
0H
0)
0&
0%
0$
1a
1J
0v
0_
1+
0*!
0'!
1x
0w
0`
0+!
1|
1{
0z
0B
1C
1D
1R
13
1%
1$
0#
10!
1-!
0,!
0T
1U
1X
19
16
05
#158500
1!
1[
#161000
0!
0[
1g
1O
1S
1^
0\
14
10
00!
1.!
1V
0X
09
17
0]
#163500
1!
1[
#166000
0!
0[
0g
0O
0S
0^
1\
04
00
10!
0.!
0V
1X
19
07
1]
1j
1N
0(!
1'!
1$!
0h
1/
0)!
1+!
0i
0R
1Q
12
03
12!
00!
1/!
1.!
0-!
0U
1V
1W
0X
1Z
1;
09
18
17
06
#168500
1!
1[
#171000
0!
0[
1g
1O
1S
0\
14
10
02!
11!
0/!
0W
1Y
0Z
0;
1:
08
0]
#173500
1!
1[
#176000
0!
0[
0g
0O
0S
1\
04
00
12!
01!
1/!
1W
0Y
1Z
1;
0:
18
1]
0j
0N
1(!
0'!
0$!
1h
0/
1)!
0+!
1i
1R
0Q
02
13
02!
10!
0/!
0.!
1-!
1U
0V
0W
1X
0Z
0;
19
08
07
16
1m
1M
0)!
1$!
1~
0k
1.
1Q
12
12!
11!
00!
0-!
0l
0U
0X
1Y
1Z
1;
1:
09
06
#178500
1!
1[
#181000
0!
0[
1g
1O
1S
0\
14
10
02!
01!
1/!
1.!
1-!
1,!
1T
1U
1V
1W
0Y
0Z
0;
0:
18
17
16
15
0]
#183500
1!
1[
#186000
0!
0[
0g
0O
0S
1\
04
00
12!
11!
0/!
0.!
0-!
0,!
0T
0U
0V
0W
1Y
1Z
1;
1:
08
07
06
05
1]
1j
1N
0(!
1'!
1%!
0$!
0h
1/
1)!
1+!
1&!
0i
1P
0R
0Q
02
03
11
02!
01!
0Y
0Z
0;
0:
#188500
1!
1[
#191000
0!
0[
1g
1O
1S
0\
14
10
1/!
1.!
1V
1W
18
17
0]
#193500
1!
1[
#196000
0!
0[
0g
0O
0S
1\
04
00
0/!
0.!
0V
0W
08
07
1]
0j
0N
1(!
0'!
0%!
1$!
1h
0/
0)!
0+!
0&!
1i
0P
1R
1Q
12
13
01
12!
11!
1Y
1Z
1;
1:
0m
0M
1)!
0$!
0~
1k
0.
0Q
02
02!
01!
10!
1-!
1l
1U
1X
0Y
0Z
0;
0:
19
16
1o
1L
1~
1v
0r
0n
1-
1*!
1'!
0x
1w
1}
1z
1B
1E
1+!
1&
1#
1#!
0{
0z
0B
0C
1H
0R
03
1)
0$
0#
00!
0-!
1,!
1T
0U
0X
09
06
15
#198500
1!
1[
#201000
0!
0[
1g
1O
1S
1^
0\
14
10
12!
1/!
1.!
1-!
1U
1V
1W
1Z
1;
18
17
16
0]
#203500
1!
1[
#206000
0!
0[
0g
0O
0S
0^
1\
04
00
02!
0/!
0.!
0-!
0U
0V
0W
0Z
0;
08
07
06
1]
1j
1N
0*!
0'!
1$!
0h
1/
0+!
0i
1R
13
10!
1-!
0,!
0T
1U
1X
19
16
05
#208500
1!
1[
#211000
0!
0[
1g
1O
1S
0\
14
10
00!
1.!
1V
0X
09
17
0]
#213500
1!
1[
#216000
0!
0[
0g
0O
0S
1\
04
00
10!
0.!
0V
1X
19
07
1]
0j
0N
1*!
1'!
0$!
1h
0/
1+!
1i
0R
03
00!
0-!
1,!
1T
0U
0X
09
06
15
1m
1M
0)!
1$!
0k
1.
1Q
12
12!
1/!
1.!
0,!
0l
0T
1V
1W
1Z
1;
18
17
05
#218500
1!
1[
#221000
0!
0[
1g
1O
1S
0\
14
10
02!
11!
0/!
0W
1Y
0Z
0;
1:
08
0]
#223500
1!
1[
#226000
0!
0[
0g
0O
0S
1\
04
00
12!
01!
1/!
1W
0Y
1Z
1;
0:
18
1]
1j
1N
0*!
0'!
1%!
0$!
0~
0h
1/
0+!
0i
1R
13
11!
0/!
0.!
0V
0W
1Y
1:
08
07
#228500
1!
1[
#231000
0!
0[
1g
1O
1S
0\
14
10
02!
01!
1/!
1.!
1-!
1,!
1T
1U
1V
1W
0Y
0Z
0;
0:
18
17
16
15
0]
#233500
1!
1[
#236000
0!
0[
0g
0O
0S
1\
04
00
12!
11!
0/!
0.!
0-!
0,!
0T
0U
0V
0W
1Y
1Z
1;
1:
08
07
06
05
1]
0j
0N
1*!
1'!
0%!
1$!
1~
1h
0/
1+!
1i
0R
03
01!
1/!
1.!
1V
1W
0Y
0:
18
17
0m
0M
1)!
0$!
1k
0.
0Q
02
02!
0/!
0.!
1,!
1l
1T
0V
0W
0Z
0;
08
07
15
0o
0L
0~
0v
1r
1n
0-
0*!
0'!
1x
0w
0#!
0}
0|
1z
1B
0D
0E
0H
0+!
0)
0&
0%
1#
1|
1{
0z
0B
1C
1D
1R
13
1%
1$
0#
10!
1-!
0,!
0T
1U
1X
19
16
05
1q
1K
1v
1t
0r
0p
1,
1*!
0(!
0x
1w
1&!
1}
1z
1B
1E
1P
1+!
11
1&
1#
1#!
0{
0z
12!
11!
1Y
1Z
0B
0C
1H
0R
03
1)
0$
0#
1;
1:
02!
01!
00!
0-!
0U
0X
0Y
0Z
0;
0:
09
06
#238500
1!
1[
#241000
0!
0[
1g
1O
1S
1^
0\
14
10
1/!
1.!
1V
1W
18
17
0]
#243500
1!
1[
#246000
0!
0[
0g
0O
0S
0^
1\
04
00
0/!
0.!
0V
0W
08
07
1]
1j
1N
1(!
1'!
1$!
0u
0h
1/
0w
0&!
0i
0P
01
0#!
1"!
0}
1,!
1T
0E
1G
0H
0)
1(
0&
15
#248500
1!
1[
#251000
0!
0[
1g
1O
1S
0\
14
10
12!
1/!
1.!
1-!
1U
1V
1W
1Z
1;
18
17
16
0]
#253500
1!
1[
#256000
0!
0[
0g
0O
0S
1\
04
00
02!
0/!
0.!
0-!
0U
0V
0W
0Z
0;
08
07
06
1]
0j
0N
0(!
0'!
0$!
1u
1h
0/
1w
1&!
1i
1P
11
1#!
0"!
1}
0,!
0T
1E
0G
1H
1)
0(
1&
05
1m
1M
0+!
1$!
1~
0u
0k
1.
1R
0w
13
12!
11!
10!
1-!
0&!
0l
0P
1U
1X
1Y
1Z
1;
1:
19
16
01
0#!
1"!
0}
02!
01!
0Y
0Z
0E
1G
0H
0)
1(
0&
0;
0:
#258500
1!
1[
#261000
0!
0[
1g
1O
1S
0\
14
10
00!
1.!
1V
0X
09
17
0]
#263500
1!
1[
#266000
0!
0[
0g
0O
0S
1\
04
00
10!
0.!
0V
1X
19
07
1]
1j
1N
1(!
1'!
1%!
0$!
0h
1/
0)!
1+!
0i
0R
1Q
12
03
12!
00!
1/!
1.!
0-!
0U
1V
1W
0X
1Z
1;
09
18
17
06
#268500
1!
1[
#271000
0!
0[
1g
1O
1S
0\
14
10
02!
11!
0/!
0W
1Y
0Z
0;
1:
08
0]
#273500
1!
1[
#276000
0!
0[
0g
0O
0S
1\
04
00
12!
01!
1/!
1W
0Y
1Z
1;
0:
18
1]
0j
0N
0(!
0'!
0%!
1$!
1h
0/
1)!
0+!
1i
1R
0Q
02
13
02!
10!
0/!
0.!
1-!
1U
0V
0W
1X
0Z
0;
19
08
07
16
0m
0M
1+!
0$!
0~
1u
1k
0.
0R
1w
03
00!
0-!
1,!
1&!
1l
1P
1T
0U
0X
09
06
15
11
1#!
0"!
1}
0,!
0T
1E
0G
1H
1)
0(
1&
05
1o
1L
1~
0t
1s
0n
1-
1(!
1'!
0u
0)!
1%!
0&!
0P
1Q
0+!
0w
12
01
12!
1/!
1.!
1V
1W
1Z
1R
13
1;
18
17
11!
0/!
0.!
0#!
1"!
0}
0E
1G
0H
0V
0W
1Y
1:
08
07
0)
1(
0&
#278500
1!
1[
#281000
0!
0[
1g
1O
1S
1^
0\
14
10
02!
01!
1/!
1.!
1-!
1,!
1T
1U
1V
1W
0Y
0Z
0;
0:
18
17
16
15
0]
#283500
1!
1[
#286000
0!
0[
0g
0O
0S
0^
1\
04
00
12!
11!
0/!
0.!
0-!
0,!
0T
0U
0V
0W
1Y
1Z
1;
1:
08
07
06
05
1]
1j
1N
0*!
0'!
1$!
0h
1/
1+!
1)!
1&!
0i
1P
0Q
0R
03
02
11
02!
01!
0Y
0Z
0;
0:
#288500
1!
1[
#291000
0!
0[
1g
1O
1S
0\
14
10
1/!
1.!
1V
1W
18
17
0]
#293500
1!
1[
#296000
0!
0[
0g
0O
0S
1\
04
00
0/!
0.!
0V
0W
08
07
1]
0j
0N
1*!
1'!
0$!
1h
0/
0+!
0)!
0&!
1i
0P
1Q
1R
13
12
01
12!
11!
1Y
1Z
1;
1:
1m
1M
1+!
1)!
0%!
1x
1u
0k
1.
0Q
0R
1w
03
02
02!
01!
1,!
0"!
1}
1{
1z
0l
1B
1C
1E
0G
1T
0Y
0Z
0;
0:
15
0(
1&
1$
1#
1#!
1"!
0}
0|
0{
0z
0B
0C
0D
0E
1G
1H
1)
1(
0&
0%
0$
0#
#298500
1!
1[
#301000
0!
0[
1g
1O
1S
0\
14
10
12!
1/!
1.!
1-!
1U
1V
1W
1Z
1;
18
17
16
0]
#303500
1!
1[
#306000
0!
0[
0g
0O
0S
1\
04
00
02!
0/!
0.!
0-!
0U
0V
0W
0Z
0;
08
07
06
1]
1j
1N
0*!
0'!
1$!
0~
0h
1/
0+!
0i
1R
13
10!
1-!
0,!
0T
1U
1X
19
16
05
#308500
1!
1[
#311000
0!
0[
1g
1O
1S
0\
14
10
00!
1.!
1V
0X
09
17
0]
#313500
1!
1[
#316000
0!
0[
0g
0O
0S
1\
04
00
10!
0.!
0V
1X
19
07
1]
0j
0N
1*!
1'!
0$!
1~
1h
0/
1+!
1i
0R
03
00!
0-!
1,!
1T
0U
0X
09
06
15
0m
0M
0+!
0)!
1%!
0x
0u
1k
0.
1Q
1R
0w
13
12
12!
11!
0,!
0"!
1}
1|
1l
1D
1E
0G
0T
1Y
1Z
1;
1:
05
0(
1&
1%
0#!
1"!
0}
0E
1G
0H
0)
1(
0&
0o
0L
0~
1t
0s
1n
0-
0(!
0'!
1u
1+!
1)!
0%!
0Q
0R
1w
03
02
02!
01!
1,!
1&!
1P
1T
0Y
0Z
0;
0:
15
11
1#!
0"!
1}
0,!
0T
1E
0G
1H
1)
0(
1&
05
0q
0K
0v
0t
1r
1p
0,
0*!
1(!
1x
0w
0&!
0#!
0}
0|
1z
1B
0D
0E
0H
0P
0+!
01
0)
0&
0%
1#
1|
1{
0z
1,!
1T
0B
1C
1D
1R
13
1%
1$
0#
15
10!
1-!
0,!
0T
1U
1X
19
16
05
0a
0J
1v
1_
0+
1*!
1'!
0x
1w
1`
1+!
0|
0{
1z
1B
0C
0D
0R
03
0%
0$
1#
00!
0-!
1,!
1T
0U
0X
09
06
15
1c
1I
1t
1s
0r
1d
1*
0b
0(!
0'!
1x
0+!
0)!
1%!
1&!
1#!
1}
1|
0z
0B
1D
1E
1H
1P
1Q
1R
1+!
13
12
11
1)
1&
1%
0#
1"!
0}
0|
12!
11!
10!
0,!
0&!
0P
0T
1X
1Y
1Z
0D
0E
1G
0R
03
1(
0&
0%
1;
1:
19
05
01
01!
00!
1/!
1.!
1V
1W
0X
0Y
0:
09
18
17
#318500
1!
1[
#321000
0!
0[
1g
1O
1S
1^
0\
14
10
02!
11!
0/!
0W
1Y
0Z
1f
0;
1:
08
0]
0c
0g
0O
0S
0I
0t
0s
1r
0d
0^
1\
0*
04
00
1b
12!
01!
1/!
1W
0Y
1Z
1(!
1'!
0x
1)!
0%!
0f
1;
0:
18
0#!
0"!
1{
1]
1C
0G
0H
0Q
02
0)
0(
1$
0{
1z
02!
0/!
0.!
1,!
1T
0V
0W
0Z
1B
0C
0$
1#
0;
08
07
15
#323500
1!
1[
#326000
0!
0[
1g
1O
1S
1^
0\
14
10
12!
1/!
1.!
1-!
1U
1V
1W
1Z
1;
18
17
16
0]
#328500
1!
1[
#331000
0!
0[
0g
0O
0S
0^
1\
04
00
02!
0/!
0.!
0-!
0U
0V
0W
0Z
0;
08
07
06
1]
1j
1N
0*!
0'!
1$!
0h
1/
0+!
0i
1R
13
10!
1-!
0,!
0T
1U
1X
19
16
05
#333500
1!
1[
#336000
0!
0[
1g
1O
1S
0\
14
10
00!
1.!
1V
0X
09
17
0]
#338500
1!
1[
#341000
0!
0[
0g
0O
0S
1\
04
00
10!
0.!
0V
1X
19
07
1]
0j
0N
1*!
1'!
0$!
1h
0/
1+!
1i
0R
03
00!
0-!
1,!
1T
0U
0X
09
06
15
1m
1M
0)!
1$!
1~
0k
1.
1Q
12
12!
1/!
1.!
0,!
0l
0T
1V
1W
1Z
1;
18
17
05
#343500
1!
1[
#346000
0!
0[
1g
1O
1S
0\
14
10
02!
11!
0/!
0W
1Y
0Z
0;
1:
08
0]
#348500
1!
1[
#351000
0!
0[
0g
0O
0S
1\
04
00
12!
01!
1/!
1W
0Y
1Z
1;
0:
18
1]
1j
1N
0*!
0'!
1%!
0$!
0h
1/
0+!
0i
1R
13
11!
0/!
0.!
0V
0W
1Y
1:
08
07
#353500
1!
1[
#356000
0!
0[
1g
1O
1S
0\
14
10
02!
01!
1/!
1.!
1-!
1,!
1T
1U
1V
1W
0Y
0Z
0;
0:
18
17
16
15
0]
#358500
1!
1[
#361000
0!
0[
0g
0O
0S
1\
04
00
12!
11!
0/!
0.!
0-!
0,!
0T
0U
0V
0W
1Y
1Z
1;
1:
08
07
06
05
1]
0j
0N
1*!
1'!
0%!
1$!
1h
0/
1+!
1i
0R
03
01!
1/!
1.!
1V
1W
0Y
0:
18
17
0m
0M
1)!
0$!
0~
1k
0.
0Q
02
02!
0/!
0.!
1,!
1l
1T
0V
0W
0Z
0;
08
07
15
1o
1L
1~
1t
0n
1-
0(!
0'!
1&!
1P
11
0,!
0T
05
#363500
1!
1[
#366000
0!
0[
1g
1O
1S
1^
0\
14
10
1/!
1.!
1V
1W
18
17
0]
#368500
1!
1[
#371000
0!
0[
0g
0O
0S
0^
1\
04
00
0/!
0.!
0V
0W
08
07
1]
1j
1N
1(!
1'!
1$!
0u
0h
1/
0w
0&!
0i
0P
01
1#!
1}
1|
1{
1,!
1T
1C
1D
1E
1H
1)
1&
1%
1$
15
#373500
1!
1[
#376000
0!
0[
1g
1O
1S
0\
14
10
12!
1/!
1.!
1-!
1U
1V
1W
1Z
1;
18
17
16
0]
#378500
1!
1[
#381000
0!
0[
0g
0O
0S
1\
04
00
02!
0/!
0.!
0-!
0U
0V
0W
0Z
0;
08
07
06
1]
0j
0N
0(!
0'!
0$!
1u
1h
0/
1w
1&!
1i
1P
11
0#!
0}
0|
0{
0,!
0T
0C
0D
0E
0H
0)
0&
0%
0$
05
1m
1M
0+!
1$!
0u
0k
1.
1R
0w
13
12!
11!
10!
1-!
0&!
0l
0P
1U
1X
1Y
1Z
1;
1:
19
16
01
1#!
1}
1|
1{
02!
01!
0Y
0Z
1C
1D
1E
1H
1)
1&
1%
1$
0;
0:
#383500
1!
1[
